lme4_example.utf8.md
…
# add an outlier
df3[1, "measurement"] = 0.9

df3

## # A tibble: 100 x 4
##       ID treatment measurement trial_number
##    <int> <chr>           <dbl>        <int>
##  1     1 sham          0.9                1
##  2     1 sham          0.00611            2
##  3     2 ctrl         -0.186              1
##  4     2 ctrl         -0.193              2
##  5     3 ctrl          0.142              1
##  6     3 ctrl          0.140              2
##  7     3 ctrl          0.147              3
##  8     4 exper         0.206              1
##  9     4 exper         0.217              2
## 10     4 exper         0.209              3
## # ... with 90 more rows
…
